Job #6922

Job #6922

Job #6345

Job #6345

Job #6523

Job #6523

Job #6571

Job #6571

Job #5548

Job #3912

Job #3912

Job #532

Job #532

Job #410

Job #410

Job #5975

Job #5975

Job #3202

Job #3202

Job #2795

Job #2795

Job #3007

Job #3906

Job #3906

Job #2257

Job #5788

Job #5118

Job #6780

Job #6841

Job #6841

Job #4832

Job #6959

Job #503

Job #503

Job #488

Job #6181

Job #6344

Job #5974

Job #5974

Job #5068

Job #4668

Job #4668

Job #4788

Job #4788

Job #3902

Job #3902

Job #4994

Job #4994

Job #3914

Job #3914

Job #4160

Job #4160

Job #6802

Job #6802

Job #6802

Job #6577

Job #6577

Job #4594

Job #4594
